{
    "rendered": {
        "description": {
            "raw": "",
            "markup": "markdown",
            "html": "",
            "type": "rendered"
        },
        "title": {
            "raw": "Test",
            "markup": "markdown",
            "html": "<p>Test</p>",
            "type": "rendered"
        }
    },
    "type": "pullrequest",
    "description": "",
    "links": {
        "decline": {
            "href": "https://api.bitbucket.org/2.0/repositories/kamaevpp/bb-cloud-pr-creator/pullrequests/2/decline"
        },
        "diffstat": {
            "href": "https://api.bitbucket.org/2.0/repositories/kamaevpp/bb-cloud-pr-creator/diffstat/kamaevpp/bb-cloud-pr-creator:f45afe2e8fe5%0D7eebed4d156a?from_pullrequest_id=2"
        },
        "commits": {
            "href": "https://api.bitbucket.org/2.0/repositories/kamaevpp/bb-cloud-pr-creator/pullrequests/2/commits"
        },
        "self": {
            "href": "https://api.bitbucket.org/2.0/repositories/kamaevpp/bb-cloud-pr-creator/pullrequests/2"
        },
        "comments": {
            "href": "https://api.bitbucket.org/2.0/repositories/kamaevpp/bb-cloud-pr-creator/pullrequests/2/comments"
        },
        "merge": {
            "href": "https://api.bitbucket.org/2.0/repositories/kamaevpp/bb-cloud-pr-creator/pullrequests/2/merge"
        },
        "html": {
            "href": "https://bitbucket.org/kamaevpp/bb-cloud-pr-creator/pull-requests/2"
        },
        "activity": {
            "href": "https://api.bitbucket.org/2.0/repositories/kamaevpp/bb-cloud-pr-creator/pullrequests/2/activity"
        },
        "request-changes": {
            "href": "https://api.bitbucket.org/2.0/repositories/kamaevpp/bb-cloud-pr-creator/pullrequests/2/request-changes"
        },
        "diff": {
            "href": "https://api.bitbucket.org/2.0/repositories/kamaevpp/bb-cloud-pr-creator/diff/kamaevpp/bb-cloud-pr-creator:f45afe2e8fe5%0D7eebed4d156a?from_pullrequest_id=2"
        },
        "approve": {
            "href": "https://api.bitbucket.org/2.0/repositories/kamaevpp/bb-cloud-pr-creator/pullrequests/2/approve"
        },
        "statuses": {
            "href": "https://api.bitbucket.org/2.0/repositories/kamaevpp/bb-cloud-pr-creator/pullrequests/2/statuses"
        }
    },
    "title": "Test",
    "close_source_branch": false,
    "reviewers": [],
    "id": 2,
    "destination": {
        "commit": {
            "hash": "7eebed4d156a",
            "type": "commit",
            "links": {
                "self": {
                    "href": "https://api.bitbucket.org/2.0/repositories/kamaevpp/bb-cloud-pr-creator/commit/7eebed4d156a"
                },
                "html": {
                    "href": "https://bitbucket.org/kamaevpp/bb-cloud-pr-creator/commits/7eebed4d156a"
                }
            }
        },
        "repository": {
            "links": {
                "self": {
                    "href": "https://api.bitbucket.org/2.0/repositories/kamaevpp/bb-cloud-pr-creator"
                },
                "html": {
                    "href": "https://bitbucket.org/kamaevpp/bb-cloud-pr-creator"
                },
                "avatar": {
                    "href": "https://bytebucket.org/ravatar/%7B74ad6119-6215-4ae3-81ee-e1a7177432cd%7D?ts=default"
                }
            },
            "type": "repository",
            "name": "bb-cloud-pr-creator",
            "full_name": "kamaevpp/bb-cloud-pr-creator",
            "uuid": "{74ad6119-6215-4ae3-81ee-e1a7177432cd}"
        },
        "branch": {
            "name": "master"
        }
    },
    "created_on": "2021-03-16T21:24:46.591400+00:00",
    "summary": {
        "raw": "",
        "markup": "markdown",
        "html": "",
        "type": "rendered"
    },
    "source": {
        "commit": {
            "hash": "f45afe2e8fe5",
            "type": "commit",
            "links": {
                "self": {
                    "href": "https://api.bitbucket.org/2.0/repositories/kamaevpp/bb-cloud-pr-creator/commit/f45afe2e8fe5"
                },
                "html": {
                    "href": "https://bitbucket.org/kamaevpp/bb-cloud-pr-creator/commits/f45afe2e8fe5"
                }
            }
        },
        "repository": {
            "links": {
                "self": {
                    "href": "https://api.bitbucket.org/2.0/repositories/kamaevpp/bb-cloud-pr-creator"
                },
                "html": {
                    "href": "https://bitbucket.org/kamaevpp/bb-cloud-pr-creator"
                },
                "avatar": {
                    "href": "https://bytebucket.org/ravatar/%7B74ad6119-6215-4ae3-81ee-e1a7177432cd%7D?ts=default"
                }
            },
            "type": "repository",
            "name": "bb-cloud-pr-creator",
            "full_name": "kamaevpp/bb-cloud-pr-creator",
            "uuid": "{74ad6119-6215-4ae3-81ee-e1a7177432cd}"
        },
        "branch": {
            "name": "test"
        }
    },
    "comment_count": 0,
    "state": "OPEN",
    "task_count": 0,
    "participants": [],
    "reason": "",
    "updated_on": "2021-03-16T21:24:46.650541+00:00",
    "author": {
        "display_name": "Pavel Kamaev",
        "uuid": "{7dc7cb3f-019b-49a0-af46-ecba1e8253bb}",
        "links": {
            "self": {
                "href": "https://api.bitbucket.org/2.0/users/%7B7dc7cb3f-019b-49a0-af46-ecba1e8253bb%7D"
            },
            "html": {
                "href": "https://bitbucket.org/%7B7dc7cb3f-019b-49a0-af46-ecba1e8253bb%7D/"
            },
            "avatar": {
                "href": "https://secure.gravatar.com/avatar/519b65d1cada4174c58fc406195ed6aa?d=https%3A%2F%2Favatar-management--avatars.us-west-2.prod.public.atl-paas.net%2Finiti als%2FPK-1.png"
            }
        },
        "nickname": "kamaevpp",
        "type": "user",
        "account_id": "557058:409c972c-81ae-46f7-b3d8-50375a0d3edf"
    },
    "merge_commit": null,
    "closed_by": null
}
